Scaling and Modeling with tidyquant
…
# Loads tidyquant, lubridate, xts, quantmod, TTR, and PerformanceAnalytics
library(tidyverse)
library(tidyquant)  

1.0 Scaling the Getting of Financial Data

A very basic example is retrieving the stock prices for multiple
stocks. There are three primary ways to do this:

Method 1: Map a character vector with multiple stock symbols

c("AAPL", "GOOG", "FB") %>%
    tq_get(get = "stock.prices", from = "2016-01-01", to = "2017-01-01")

## # A tibble: 504 x 8
##    symbol date        open  high   low close    volume adjusted
##    <chr>  <date>     <dbl> <dbl> <dbl> <dbl>     <dbl>    <dbl>
##  1 AAPL   2016-01-04  25.7  26.3  25.5  26.3 270597600     24.1
##  2 AAPL   2016-01-05  26.4  26.5  25.6  25.7 223164000     23.5
##  3 AAPL   2016-01-06  25.1  25.6  25.0  25.2 273829600     23.0
##  4 AAPL   2016-01-07  24.7  25.0  24.1  24.1 324377600     22.0
##  5 AAPL   2016-01-08  24.6  24.8  24.2  24.2 283192000     22.2
##  6 AAPL   2016-01-11  24.7  24.8  24.3  24.6 198957600     22.5
##  7 AAPL   2016-01-12  25.1  25.2  24.7  25.0 196616800     22.8
##  8 AAPL   2016-01-13  25.1  25.3  24.3  24.3 249758400     22.3
##  9 AAPL   2016-01-14  24.5  25.1  23.9  24.9 252680400     22.7
## 10 AAPL   2016-01-15  24.0  24.4  23.8  24.3 319335600     22.2
## # ... with 494 more rows
…
## # A tibble: 3 x 2
##   stocks industry  
##   <chr>  <chr>     
## 1 AAPL   Technology
## 2 JPM    Financial 
## 3 CVX    Energy

Second, send the stock list to tq_get. Notice how the
symbol and industry columns are automatically expanded the length of the
stock prices.

stock_list %>%
    tq_get(get = "stock.prices", from = "2016-01-01", to = "2017-01-01")

## # A tibble: 756 x 9
##    stocks industry   date        open  high   low close    volume adjusted
##    <chr>  <chr>      <date>     <dbl> <dbl> <dbl> <dbl>     <dbl>    <dbl>
##  1 AAPL   Technology 2016-01-04  25.7  26.3  25.5  26.3 270597600     24.1
##  2 AAPL   Technology 2016-01-05  26.4  26.5  25.6  25.7 223164000     23.5
##  3 AAPL   Technology 2016-01-06  25.1  25.6  25.0  25.2 273829600     23.0
##  4 AAPL   Technology 2016-01-07  24.7  25.0  24.1  24.1 324377600     22.0
##  5 AAPL   Technology 2016-01-08  24.6  24.8  24.2  24.2 283192000     22.2
##  6 AAPL   Technology 2016-01-11  24.7  24.8  24.3  24.6 198957600     22.5
##  7 AAPL   Technology 2016-01-12  25.1  25.2  24.7  25.0 196616800     22.8
##  8 AAPL   Technology 2016-01-13  25.1  25.3  24.3  24.3 249758400     22.3
##  9 AAPL   Technology 2016-01-14  24.5  25.1  23.9  24.9 252680400     22.7
## 10 AAPL   Technology 2016-01-15  24.0  24.4  23.8  24.3 319335600     22.2
## # ... with 746 more rows

Method 2B: Use index or exchange

Get an index…

tq_index("DOW")

## # A tibble: 30 x 8
##    symbol company                    ident~1 sedol weight sector share~2 local~3
##    <chr>  <chr>                      <chr>   <chr>  <dbl> <chr>    <dbl> <chr>  
##  1 UNH    UnitedHealth Group Incorp~ 91324P~ 2917~ 0.0943 Healt~ 5616168 USD    
##  2 GS     Goldman Sachs Group Inc.   38141G~ 2407~ 0.0644 Finan~ 5616168 USD    
##  3 HD     Home Depot Inc.            437076~ 2434~ 0.0572 Consu~ 5616168 USD    
##  4 MSFT   Microsoft Corporation      594918~ 2588~ 0.0570 Infor~ 5616168 USD    
##  5 MCD    McDonald's Corporation     580135~ 2550~ 0.0557 Consu~ 5616168 USD    
##  6 AMGN   Amgen Inc.                 031162~ 2023~ 0.0484 Healt~ 5616168 USD    
##  7 CAT    Caterpillar Inc.           149123~ 2180~ 0.0450 Indus~ 5616168 USD    
##  8 V      Visa Inc. Class A          92826C~ B2PZ~ 0.0446 Finan~ 5616168 USD    
##  9 BA     Boeing Company             097023~ 2108~ 0.0423 Indus~ 5616168 USD    
## 10 CRM    Salesforce Inc.            79466L~ 2310~ 0.0394 Infor~ 5616168 USD    
## # ... with 20 more rows, and abbreviated variable names 1: identifier,
## #   2: shares_held, 3: local_currency

…or, get an exchange.

tq_exchange("NYSE")

Send the index or exchange to tq_get. Important
Note: This can take several minutes depending on the size of the index
or exchange, which is why only the first three stocks are evaluated in
the vignette.

tq_index("DOW") %>%
    slice(1:3) %>%
    tq_get(get = "stock.prices")

## # A tibble: 7,737 x 15
##    symbol company   ident~1 sedol weight sector share~2 local~3 date        open
##    <chr>  <chr>     <chr>   <chr>  <dbl> <chr>    <dbl> <chr>   <date>     <dbl>
##  1 UNH    UnitedHe~ 91324P~ 2917~ 0.0943 Healt~ 5616168 USD     2013-01-02  54.9
##  2 UNH    UnitedHe~ 91324P~ 2917~ 0.0943 Healt~ 5616168 USD     2013-01-03  53.4
##  3 UNH    UnitedHe~ 91324P~ 2917~ 0.0943 Healt~ 5616168 USD     2013-01-04  52.2
##  4 UNH    UnitedHe~ 91324P~ 2917~ 0.0943 Healt~ 5616168 USD     2013-01-07  51.9
##  5 UNH    UnitedHe~ 91324P~ 2917~ 0.0943 Healt~ 5616168 USD     2013-01-08  52  
##  6 UNH    UnitedHe~ 91324P~ 2917~ 0.0943 Healt~ 5616168 USD     2013-01-09  51.6
##  7 UNH    UnitedHe~ 91324P~ 2917~ 0.0943 Healt~ 5616168 USD     2013-01-10  52.5
##  8 UNH    UnitedHe~ 91324P~ 2917~ 0.0943 Healt~ 5616168 USD     2013-01-11  53.4
##  9 UNH    UnitedHe~ 91324P~ 2917~ 0.0943 Healt~ 5616168 USD     2013-01-14  52.9
## 10 UNH    UnitedHe~ 91324P~ 2917~ 0.0943 Healt~ 5616168 USD     2013-01-15  53.2
## # ... with 7,727 more rows, 5 more variables: high <dbl>, low <dbl>,
## #   close <dbl>, volume <dbl>, adjusted <dbl>, and abbreviated variable names
## #   1: identifier, 2: shares_held, 3: local_currency
…
2.0 Scaling the Mutation of Financial Data

Once you get the data, you typically want to do something with it.
You can easily do this at scale. Let’s get the yearly returns for
multiple stocks using tq_transmute. First, get the prices.
We’ll use the FANG data set, but you typically will use
tq_get to retrieve data in “tibble” format.

data("FANG")

FANG

## # A tibble: 4,032 x 8
##    symbol date        open  high   low close    volume adjusted
##    <chr>  <date>     <dbl> <dbl> <dbl> <dbl>     <dbl>    <dbl>
##  1 FB     2013-01-02  27.4  28.2  27.4  28    69846400     28  
##  2 FB     2013-01-03  27.9  28.5  27.6  27.8  63140600     27.8
##  3 FB     2013-01-04  28.0  28.9  27.8  28.8  72715400     28.8
##  4 FB     2013-01-07  28.7  29.8  28.6  29.4  83781800     29.4
##  5 FB     2013-01-08  29.5  29.6  28.9  29.1  45871300     29.1
##  6 FB     2013-01-09  29.7  30.6  29.5  30.6 104787700     30.6
##  7 FB     2013-01-10  30.6  31.5  30.3  31.3  95316400     31.3
##  8 FB     2013-01-11  31.3  32.0  31.1  31.7  89598000     31.7
##  9 FB     2013-01-14  32.1  32.2  30.6  31.0  98892800     31.0
## 10 FB     2013-01-15  30.6  31.7  29.9  30.1 173242600     30.1
## # ... with 4,022 more rows
…
Example: Applying a Regression Model to Detect a Positive Trend

In this example, we’ll use a simple linear model to identify the
trend in annual returns to determine if the stock returns are decreasing
or increasing over time.

Analyze a Single Stock

First, let’s collect stock data with tq_get()

AAPL <- tq_get("AAPL", from = "2007-01-01", to = "2016-12-31")
AAPL

## # A tibble: 2,518 x 8
##    symbol date        open  high   low close     volume adjusted
##    <chr>  <date>     <dbl> <dbl> <dbl> <dbl>      <dbl>    <dbl>
##  1 AAPL   2007-01-03  3.08  3.09  2.92  2.99 1238319600     2.55
##  2 AAPL   2007-01-04  3.00  3.07  2.99  3.06  847260400     2.60
##  3 AAPL   2007-01-05  3.06  3.08  3.01  3.04  834741600     2.59
##  4 AAPL   2007-01-08  3.07  3.09  3.05  3.05  797106800     2.60
##  5 AAPL   2007-01-09  3.09  3.32  3.04  3.31 3349298400     2.81
##  6 AAPL   2007-01-10  3.38  3.49  3.34  3.46 2952880000     2.95
##  7 AAPL   2007-01-11  3.43  3.46  3.40  3.42 1440252800     2.91
##  8 AAPL   2007-01-12  3.38  3.40  3.33  3.38 1312690400     2.88
##  9 AAPL   2007-01-16  3.42  3.47  3.41  3.47 1244076400     2.95
## 10 AAPL   2007-01-17  3.48  3.49  3.39  3.39 1646260000     2.89
## # ... with 2,508 more rows
…
c("AAPL", "GOOG", "BAD APPLE") %>%
    tq_get(get = "stock.prices", complete_cases = TRUE)

## Warning: There was 1 warning in `dplyr::mutate()`.
## i In argument: `data.. = purrr::map(...)`.
## Caused by warning:
## ! x = 'BAD APPLE', get = 'stock.prices': Error in getSymbols.yahoo(Symbols = "BAD APPLE", env = <environment>, : Unable to import "BAD APPLE".
## BAD APPLE download failed after two attempts. Error message:
## HTTP error 400.
##  Removing BAD APPLE.

## # A tibble: 5,158 x 8
##    symbol date        open  high   low close    volume adjusted
##    <chr>  <date>     <dbl> <dbl> <dbl> <dbl>     <dbl>    <dbl>
##  1 AAPL   2013-01-02  19.8  19.8  19.3  19.6 560518000     16.8
##  2 AAPL   2013-01-03  19.6  19.6  19.3  19.4 352965200     16.6
##  3 AAPL   2013-01-04  19.2  19.2  18.8  18.8 594333600     16.2
##  4 AAPL   2013-01-07  18.6  18.9  18.4  18.7 484156400     16.1
##  5 AAPL   2013-01-08  18.9  19.0  18.6  18.8 458707200     16.1
##  6 AAPL   2013-01-09  18.7  18.8  18.4  18.5 407604400     15.9
##  7 AAPL   2013-01-10  18.9  18.9  18.4  18.7 601146000     16.1
##  8 AAPL   2013-01-11  18.6  18.8  18.5  18.6 350506800     16.0
##  9 AAPL   2013-01-14  18.0  18.1  17.8  17.9 734207600     15.4
## 10 AAPL   2013-01-15  17.8  17.8  17.3  17.4 876772400     14.9
## # ... with 5,148 more rows
…
c("AAPL", "GOOG", "BAD APPLE") %>%
    tq_get(get = "stock.prices", complete_cases = FALSE)

## Warning: There was 1 warning in `dplyr::mutate()`.
## i In argument: `data.. = purrr::map(...)`.
## Caused by warning:
## ! x = 'BAD APPLE', get = 'stock.prices': Error in getSymbols.yahoo(Symbols = "BAD APPLE", env = <environment>, : Unable to import "BAD APPLE".
## BAD APPLE download failed after two attempts. Error message:
## HTTP error 400.

## # A tibble: 5,159 x 8
##    symbol date        open  high   low close    volume adjusted
##    <chr>  <date>     <dbl> <dbl> <dbl> <dbl>     <dbl>    <dbl>
##  1 AAPL   2013-01-02  19.8  19.8  19.3  19.6 560518000     16.8
##  2 AAPL   2013-01-03  19.6  19.6  19.3  19.4 352965200     16.6
##  3 AAPL   2013-01-04  19.2  19.2  18.8  18.8 594333600     16.2
##  4 AAPL   2013-01-07  18.6  18.9  18.4  18.7 484156400     16.1
##  5 AAPL   2013-01-08  18.9  19.0  18.6  18.8 458707200     16.1
##  6 AAPL   2013-01-09  18.7  18.8  18.4  18.5 407604400     15.9
##  7 AAPL   2013-01-10  18.9  18.9  18.4  18.7 601146000     16.1
##  8 AAPL   2013-01-11  18.6  18.8  18.5  18.6 350506800     16.0
##  9 AAPL   2013-01-14  18.0  18.1  17.8  17.9 734207600     15.4
## 10 AAPL   2013-01-15  17.8  17.8  17.3  17.4 876772400     14.9
## # ... with 5,149 more rows
…
